…
## how to calculate using_days, the number of days an episode spans
* where there is only a single prescription in an episode, we cannot calculate using_days;  we use NA here
* Where there is more than 1 prescripition in an episode, using_days for each prescription is the number of days between this and the next prescription in an episode
* for the last prescription of an multi-prescription episode
* calculate the average doses / day for the episode (using ddd), not including the last episode
* take the ddd of the last prescription, and calculate the number of days that it applies to, based on the previous average


# looking at a single person, high user

```
## # A tibble: 234 x 9
## # Groups:   pin, gender, age, state, type_name, supply_date [234]
##           pin gender   age state               type_name supply_date ndays difference     rate
##         <dbl>  <chr> <chr> <chr>                   <chr>      <date> <int>     <time>    <dbl>
##  1 1841086769     F     26  NSW                    Bupre  2016-07-26    14     3 days 4.666667
##  2 1841086769     F     26  NSW  Oxycodone and Oxy+Nalox  2013-08-29    48     9 days 5.333333
##  3 1841086769     F     26  NSW  Oxycodone and Oxy+Nalox  2013-09-07    56    16 days 3.500000
##  4 1841086769     F     26  NSW  Oxycodone and Oxy+Nalox  2013-09-23    56    22 days 2.545455
##  5 1841086769     F     26  NSW  Oxycodone and Oxy+Nalox  2013-10-15    56    24 days 2.333333
##  6 1841086769     F     26  NSW  Oxycodone and Oxy+Nalox  2013-11-08    28     9 days 3.111111
##  7 1841086769     F     26  NSW  Oxycodone and Oxy+Nalox  2013-11-17    28    23 days 1.217391
##  8 1841086769     F     26  NSW  Oxycodone and Oxy+Nalox  2013-12-10    56    28 days 2.000000
##  9 1841086769     F     26  NSW  Oxycodone and Oxy+Nalox  2014-01-07    56     9 days 6.222222
## 10 1841086769     F     26  NSW  Oxycodone and Oxy+Nalox  2014-01-16    20     5 days 4.000000
## # ... with 224 more rows
```
…
```
## # A tibble: 132 x 9
## # Groups:   pin, type_name [122]
##           pin               type_name episode    rate_sd rate_mean no_scripts      first       last       len
##         <dbl>                   <chr>   <dbl>      <dbl>     <dbl>      <int>     <date>     <date>    <time>
##  1 7561543782                   Bupre       0 0.02704056 1.0006386          8 2016-09-12 2017-02-27  168 days
##  2 6090938648                   Bupre       0 0.13088021 1.0138889          6 2014-04-29 2014-07-10   72 days
##  3  448216859                   Bupre       0 0.13897136 0.9526775         17 2013-01-14 2014-04-15  456 days
##  4 9086705165 Oxycodone and Oxy+Nalox       0 0.19642870 2.0588671          7 2016-09-09 2017-02-07  151 days
##  5 5445313665 Oxycodone and Oxy+Nalox       1 0.23143383 1.0307914          7 2015-04-20 2015-09-19  152 days
##  6 4824399743                   Bupre       0 0.24468066 0.9661621         11 2013-01-11 2013-06-06  146 days
##  7 7116271468 Oxycodone and Oxy+Nalox       0 0.26275628 0.7480072         17 2013-02-14 2014-11-12  636 days
##  8  804955211 Oxycodone and Oxy+Nalox       0 0.26559809 1.9546553         46 2013-07-27 2016-12-09 1231 days
##  9 4196020787            Para_Codeine       0 0.32161830 0.6938327         11 2013-01-22 2013-11-22  304 days
## 10 2568560621                Fentanyl       0 0.32992244 1.0829798         45 2013-01-07 2014-10-22  653 days
## # ... with 122 more rows
```
…
