Hypothesis 3
…
df_population %>%
  distinct( lga )

# A tibble: 235 x 1
   lga  
   <fct>
 1 10050
 2 10110
 3 10150
 4 10200
 5 10250
 6 10300
 7 10350
 8 10470
 9 10550
10 10600
# ... with 225 more rows
…
