Hypothesis 3
…
Patients who were dispensed at least in 15 quarters were identified as regular users. Patients who were dispensed at least in 9 quarters were identified as long-term users. Patients who were dispensed 1-8 quarters were identified as short-term users. Patients who were dispensed just one occasion only were identified as one off users.

plan

find total doses and therefore ddd for each subgroup and LGA ( usage_category )

total doses for each subgroup, year, and lga (and age and sex )

normalise doses for each subgroup, based on age and sex for entire country 2a) take n_doses, divide by ratio for lga, and multiply by the ratio for the country

total normalised doses for entire lga

find ddd based on entire population for this lga and days_in_year (person_days)

# A tibble: 40 x 4
# Groups:   age, sex [?]
   age   sex   supply_year population
   <fct> <fct> <fct>            <dbl>
 1 0-19  F     2012           2798785
 2 0-19  F     2013           2835371
 3 0-19  F     2014           2866581
 4 0-19  F     2015           2891945
 5 0-19  F     2016           2925838
 6 0-19  M     2012           2953661
 7 0-19  M     2013           2994316
 8 0-19  M     2014           3027896
 9 0-19  M     2015           3051298
10 0-19  M     2016           3088422
# ... with 30 more rows
…
